[gd_scene load_steps=3 format=3 uid="uid://k0gy6sch4i14"]

[ext_resource type="Material" uid="uid://bbbby88a2bxig" path="res://water.tres" id="1_rmv6i"]

[sub_resource type="StandardMaterial3D" id="StandardMaterial3D_vjy6x"]
albedo_color = Color(0, 0, 0, 1)

[node name="checkpoint" type="Node3D"]
transform = Transform3D(-1, 8.74228e-08, 3.82137e-15, -1.5246e-23, -4.37114e-08, 1, 8.74228e-08, 1, 4.37114e-08, 0, 0, 0)

[node name="CSGCombiner3D" type="CSGCombiner3D" parent="."]
transform = Transform3D(0.7, 0, 0, 0, 0.7, 0, 0, 0, 0.7, 0, 0, 0)

[node name="CSGCylinder3D2" type="CSGCylinder3D" parent="CSGCombiner3D"]
transform = Transform3D(-4.37114e-08, 3.48787e-16, 1, 3.48787e-16, 1, -3.48787e-16, -1, 3.48787e-16, -4.37114e-08, 4.16398e-12, -0.0196151, 2.04721)
radius = 0.35
height = 0.887329
material = ExtResource("1_rmv6i")

[node name="check" type="CSGCylinder3D" parent="CSGCombiner3D"]
transform = Transform3D(-4.37114e-08, 3.48787e-16, 1, 0, 1, -3.48787e-16, -1, 0, -4.37114e-08, 4.16401e-12, 0.0322562, 2.04721)
radius = 0.236
height = 0.887329
material = SubResource("StandardMaterial3D_vjy6x")

[node name="CSGCylinder3D" type="CSGCylinder3D" parent="CSGCombiner3D"]
transform = Transform3D(1, 0, 0, 0, -4.37114e-08, -1, -6.09732e-31, 1, -4.37114e-08, 2.08165e-12, 2.08189e-12, 1)
radius = 0.3
material = ExtResource("1_rmv6i")
