[gd_scene load_steps=2 format=3 uid="uid://cnvi4j6gqiyfn"]

[ext_resource type="Script" path="res://load.gd" id="1_dgyp8"]

[node name="Label" type="Label"]
anchors_preset = 8
anchor_left = 0.5
anchor_top = 0.5
anchor_right = 0.5
anchor_bottom = 0.5
offset_left = -20.0
offset_top = -11.5
offset_right = 20.0
offset_bottom = 11.5
grow_horizontal = 2
grow_vertical = 2
text = "Loading..."
script = ExtResource("1_dgyp8")

[node name="Button" type="Button" parent="."]
visible = false
layout_mode = 0
offset_right = 8.0
offset_bottom = 8.0
