[gd_resource type="NoiseTexture2D" load_steps=3 format=3 uid="uid://71o1xt67ej6h"]

[sub_resource type="Gradient" id="Gradient_iavyc"]
offsets = PackedFloat32Array(0.156716, 0.873134)
colors = PackedColorArray(0.641934, 0.641934, 0.641934, 1, 0.132539, 0.322967, 0.294209, 1)

[sub_resource type="FastNoiseLite" id="FastNoiseLite_qbtlo"]
noise_type = 0
frequency = 0.114
offset = Vector3(2.08167e-14, 2.08167e-14, 2.08167e-14)
fractal_type = 2
fractal_octaves = 10

[resource]
width = 1024
height = 1024
invert = true
seamless = true
color_ramp = SubResource("Gradient_iavyc")
noise = SubResource("FastNoiseLite_qbtlo")
